{"failedCount":1,"prefixedPath":"classpath:tests\/scenario1\/scenario1.feature","packageQualifiedName":"tests.scenario1.scenario1","loopIndex":-1,"relativePath":"tests\/scenario1\/scenario1.feature","scenarioResults":[{"sectionIndex":0,"stepResults":[{"result":{"nanos":2315400,"startTime":1726862670882,"endTime":1726862670884,"millis":2.3154,"status":"passed"},"step":{"background":true,"line":4,"prefix":"*","index":0,"text":"url urlBase"},"stepLog":"22:04:30.835 karate.env system property was: null \n"},{"result":{"nanos":52664600,"startTime":1726862670888,"endTime":1726862670941,"millis":52.6646,"status":"passed"},"step":{"background":true,"line":5,"prefix":"*","index":1,"text":"def credential = read ('credentials.json')"}},{"result":{"nanos":1979900,"startTime":1726862670942,"endTime":1726862670944,"millis":1.9799,"status":"passed"},"step":{"background":true,"line":6,"prefix":"*","index":2,"text":"def error = read ('errors.json')"}},{"result":{"nanos":9907600,"startTime":1726862670942,"endTime":1726862670952,"millis":9.9076,"status":"passed"},"step":{"line":9,"prefix":"*","index":0,"text":"set credential.email = 'eve.holt@reqres.in'"}},{"result":{"nanos":1661800,"startTime":1726862670953,"endTime":1726862670955,"millis":1.6618,"status":"passed"},"step":{"line":10,"prefix":"*","index":1,"text":"set credential.password = 'cityslicka'"}},{"result":{"nanos":482600,"startTime":1726862670953,"endTime":1726862670953,"millis":0.4826,"status":"passed"},"step":{"line":12,"prefix":"Given","index":2,"text":"path 'login'"}},{"result":{"nanos":345600,"startTime":1726862670953,"endTime":1726862670953,"millis":0.3456,"status":"passed"},"step":{"line":13,"prefix":"And","index":3,"text":"request credential"}},{"result":{"nanos":614324800,"startTime":1726862670953,"endTime":1726862671567,"millis":614.3248,"status":"passed"},"step":{"line":14,"prefix":"When","index":4,"text":"method post"},"stepLog":"22:04:31.212 request:\n1 > POST https:\/\/reqres.in\/api\/login\n1 > Content-Type: application\/json; charset=UTF-8\n1 > Content-Length: 54\n1 > Host: reqres.in\n1 > Connection: Keep-Alive\n1 > User-Agent: Apache-HttpClient\/4.5.14 (Java\/21.0.4)\n1 > Accept-Encoding: gzip,deflate\n{\"email\":\"eve.holt@reqres.in\",\"password\":\"cityslicka\"}\n\n22:04:31.569 response time in milliseconds: 354\n1 < 200\n1 < Date: Fri, 20 Sep 2024 20:04:30 GMT\n1 < Content-Type: application\/json; charset=utf-8\n1 < Content-Length: 29\n1 < Connection: keep-alive\n1 < Report-To: {\"group\":\"heroku-nel\",\"max_age\":3600,\"endpoints\":[{\"url\":\"https:\/\/nel.heroku.com\/reports?ts=1726862670&sid=c4c9725f-1ab0-44d8-820f-430df2718e11&s=7b6wwrvZL%2BbmR8SIimG%2F3SVqwpb%2BldQ5Rthe04xKXNk%3D\"}]}\n1 < Reporting-Endpoints: heroku-nel=https:\/\/nel.heroku.com\/reports?ts=1726862670&sid=c4c9725f-1ab0-44d8-820f-430df2718e11&s=7b6wwrvZL%2BbmR8SIimG%2F3SVqwpb%2BldQ5Rthe04xKXNk%3D\n1 < Nel: {\"report_to\":\"heroku-nel\",\"max_age\":3600,\"success_fraction\":0.005,\"failure_fraction\":0.05,\"response_headers\":[\"Via\"]}\n1 < X-Powered-By: Express\n1 < Access-Control-Allow-Origin: *\n1 < Etag: W\/\"1d-lGCrvD6B7Qzk11+2C98+nGhhuec\"\n1 < Via: 1.1 vegur\n1 < CF-Cache-Status: DYNAMIC\n1 < Server: cloudflare\n1 < CF-RAY: 8c646cccdca3cff2-MAD\n{\"token\":\"QpwL5tke4Pnpja7X4\"}\n\n"},{"result":{"nanos":7307500,"startTime":1726862671569,"endTime":1726862671576,"millis":7.3075,"status":"passed"},"step":{"line":15,"prefix":"Then","index":5,"text":"status 200"}},{"result":{"nanos":13214200,"startTime":1726862671577,"endTime":1726862671590,"millis":13.2142,"status":"passed"},"step":{"line":16,"prefix":"And","index":6,"text":"match response.token == '#string'"}},{"result":{"nanos":2521000,"startTime":1726862671593,"endTime":1726862671596,"millis":2.521,"status":"passed"},"step":{"line":17,"prefix":"And","index":7,"text":"match responseHeaders['Content-Type'][0] contains 'application\/json'"}}],"line":21,"description":"","durationMillis":706.725,"failed":false,"executorName":"pool-1-thread-1","name":"Send a POST request with valid credentials","startTime":1726862670622,"refId":"[1.1:21]","endTime":1726862671594,"exampleData":{"email":"eve.holt@reqres.in","password":"cityslicka"},"exampleIndex":0},{"sectionIndex":1,"stepResults":[{"result":{"nanos":2311600,"startTime":1726862670882,"endTime":1726862670884,"millis":2.3116,"status":"passed"},"step":{"background":true,"line":4,"prefix":"*","index":0,"text":"url urlBase"},"stepLog":"22:04:30.835 karate.env system property was: null \n"},{"result":{"nanos":52659200,"startTime":1726862670888,"endTime":1726862670941,"millis":52.6592,"status":"passed"},"step":{"background":true,"line":5,"prefix":"*","index":1,"text":"def credential = read ('credentials.json')"}},{"result":{"nanos":1960200,"startTime":1726862670942,"endTime":1726862670944,"millis":1.9602,"status":"passed"},"step":{"background":true,"line":6,"prefix":"*","index":2,"text":"def error = read ('errors.json')"}},{"result":{"nanos":9888000,"startTime":1726862670942,"endTime":1726862670952,"millis":9.888,"status":"passed"},"step":{"line":24,"prefix":"*","index":0,"text":"set credential.email = 'eve.holt@reqres.in'"}},{"result":{"nanos":1699500,"startTime":1726862670953,"endTime":1726862670955,"millis":1.6995,"status":"passed"},"step":{"line":25,"prefix":"*","index":1,"text":"set credential.password = ''"}},{"result":{"nanos":482400,"startTime":1726862670953,"endTime":1726862670953,"millis":0.4824,"status":"passed"},"step":{"line":27,"prefix":"Given","index":2,"text":"path 'login'"}},{"result":{"nanos":379100,"startTime":1726862670953,"endTime":1726862670953,"millis":0.3791,"status":"passed"},"step":{"line":28,"prefix":"And","index":3,"text":"request credential"}},{"result":{"nanos":614259000,"startTime":1726862670953,"endTime":1726862671567,"millis":614.259,"status":"passed"},"step":{"line":29,"prefix":"When","index":4,"text":"method post"},"stepLog":"22:04:31.212 request:\n1 > POST https:\/\/reqres.in\/api\/login\n1 > Content-Type: application\/json; charset=UTF-8\n1 > Content-Length: 44\n1 > Host: reqres.in\n1 > Connection: Keep-Alive\n1 > User-Agent: Apache-HttpClient\/4.5.14 (Java\/21.0.4)\n1 > Accept-Encoding: gzip,deflate\n{\"email\":\"eve.holt@reqres.in\",\"password\":\"\"}\n\n22:04:31.569 response time in milliseconds: 354\n1 < 400\n1 < Date: Fri, 20 Sep 2024 20:04:30 GMT\n1 < Content-Type: application\/json; charset=utf-8\n1 < Content-Length: 28\n1 < Connection: keep-alive\n1 < Report-To: {\"group\":\"heroku-nel\",\"max_age\":3600,\"endpoints\":[{\"url\":\"https:\/\/nel.heroku.com\/reports?ts=1726862670&sid=c4c9725f-1ab0-44d8-820f-430df2718e11&s=7b6wwrvZL%2BbmR8SIimG%2F3SVqwpb%2BldQ5Rthe04xKXNk%3D\"}]}\n1 < Reporting-Endpoints: heroku-nel=https:\/\/nel.heroku.com\/reports?ts=1726862670&sid=c4c9725f-1ab0-44d8-820f-430df2718e11&s=7b6wwrvZL%2BbmR8SIimG%2F3SVqwpb%2BldQ5Rthe04xKXNk%3D\n1 < Nel: {\"report_to\":\"heroku-nel\",\"max_age\":3600,\"success_fraction\":0.005,\"failure_fraction\":0.05,\"response_headers\":[\"Via\"]}\n1 < X-Powered-By: Express\n1 < Access-Control-Allow-Origin: *\n1 < Etag: W\/\"1c-NmpazMScs9tOqR7eDEesn+pqC9Q\"\n1 < Via: 1.1 vegur\n1 < CF-Cache-Status: DYNAMIC\n1 < Server: cloudflare\n1 < CF-RAY: 8c646cccddef37d3-MAD\n{\"error\":\"Missing password\"}\n\n"},{"result":{"nanos":7307600,"startTime":1726862671569,"endTime":1726862671576,"millis":7.3076,"status":"passed"},"step":{"line":30,"prefix":"Then","index":5,"text":"status 400"}},{"result":{"nanos":13198700,"startTime":1726862671577,"endTime":1726862671590,"millis":13.1987,"status":"passed"},"step":{"line":31,"prefix":"And","index":6,"text":"match response.error == error.error01"}},{"result":{"nanos":2521100,"startTime":1726862671593,"endTime":1726862671596,"millis":2.5211,"status":"passed"},"step":{"line":32,"prefix":"And","index":7,"text":"match responseHeaders['Content-Type'][0] contains 'application\/json'"}}],"line":36,"description":"","durationMillis":706.6664,"failed":false,"executorName":"pool-1-thread-2","name":"Sends a POST request with only the email","startTime":1726862670622,"refId":"[2.1:36]","endTime":1726862671594,"exampleData":{"email":"eve.holt@reqres.in","password":null},"exampleIndex":0},{"sectionIndex":2,"stepResults":[{"result":{"nanos":2216800,"startTime":1726862670882,"endTime":1726862670884,"millis":2.2168,"status":"passed"},"step":{"background":true,"line":4,"prefix":"*","index":0,"text":"url urlBase"},"stepLog":"22:04:30.835 karate.env system property was: null \n"},{"result":{"nanos":52673300,"startTime":1726862670888,"endTime":1726862670941,"millis":52.6733,"status":"passed"},"step":{"background":true,"line":5,"prefix":"*","index":1,"text":"def credential = read ('credentials.json')"}},{"result":{"nanos":1994000,"startTime":1726862670942,"endTime":1726862670944,"millis":1.994,"status":"passed"},"step":{"background":true,"line":6,"prefix":"*","index":2,"text":"def error = read ('errors.json')"}},{"result":{"nanos":9911800,"startTime":1726862670942,"endTime":1726862670952,"millis":9.9118,"status":"passed"},"step":{"line":39,"prefix":"*","index":0,"text":"set credential.email = ''"}},{"result":{"nanos":1700300,"startTime":1726862670953,"endTime":1726862670955,"millis":1.7003,"status":"passed"},"step":{"line":40,"prefix":"*","index":1,"text":"set credential.password = 'cityslicka'"}},{"result":{"nanos":482800,"startTime":1726862670953,"endTime":1726862670953,"millis":0.4828,"status":"passed"},"step":{"line":42,"prefix":"Given","index":2,"text":"path 'login'"}},{"result":{"nanos":324800,"startTime":1726862670953,"endTime":1726862670953,"millis":0.3248,"status":"passed"},"step":{"line":43,"prefix":"And","index":3,"text":"request credential"}},{"result":{"nanos":657762900,"startTime":1726862670953,"endTime":1726862671611,"millis":657.7629,"status":"passed"},"step":{"line":44,"prefix":"When","index":4,"text":"method post"},"stepLog":"22:04:31.212 request:\n1 > POST https:\/\/reqres.in\/api\/login\n1 > Content-Type: application\/json; charset=UTF-8\n1 > Content-Length: 36\n1 > Host: reqres.in\n1 > Connection: Keep-Alive\n1 > User-Agent: Apache-HttpClient\/4.5.14 (Java\/21.0.4)\n1 > Accept-Encoding: gzip,deflate\n{\"email\":\"\",\"password\":\"cityslicka\"}\n\n22:04:31.611 response time in milliseconds: 399\n1 < 400\n1 < Date: Fri, 20 Sep 2024 20:04:30 GMT\n1 < Content-Type: application\/json; charset=utf-8\n1 < Content-Length: 37\n1 < Connection: keep-alive\n1 < Report-To: {\"group\":\"heroku-nel\",\"max_age\":3600,\"endpoints\":[{\"url\":\"https:\/\/nel.heroku.com\/reports?ts=1726862670&sid=c4c9725f-1ab0-44d8-820f-430df2718e11&s=7b6wwrvZL%2BbmR8SIimG%2F3SVqwpb%2BldQ5Rthe04xKXNk%3D\"}]}\n1 < Reporting-Endpoints: heroku-nel=https:\/\/nel.heroku.com\/reports?ts=1726862670&sid=c4c9725f-1ab0-44d8-820f-430df2718e11&s=7b6wwrvZL%2BbmR8SIimG%2F3SVqwpb%2BldQ5Rthe04xKXNk%3D\n1 < Nel: {\"report_to\":\"heroku-nel\",\"max_age\":3600,\"success_fraction\":0.005,\"failure_fraction\":0.05,\"response_headers\":[\"Via\"]}\n1 < X-Powered-By: Express\n1 < Access-Control-Allow-Origin: *\n1 < Etag: W\/\"25-Ik70kof1lbc973ShN5FoVPxYn7A\"\n1 < Via: 1.1 vegur\n1 < CF-Cache-Status: DYNAMIC\n1 < Server: cloudflare\n1 < CF-RAY: 8c646cccdb93215c-MAD\n{\"error\":\"Missing email or username\"}\n\n"},{"result":{"nanos":21900,"startTime":1726862671611,"endTime":1726862671611,"millis":0.0219,"status":"passed"},"step":{"line":45,"prefix":"Then","index":5,"text":"status 400"}},{"result":{"nanos":1456600,"startTime":1726862671611,"endTime":1726862671612,"millis":1.4566,"status":"passed"},"step":{"line":46,"prefix":"And","index":6,"text":"match response.error == error.error02"}},{"result":{"nanos":1181200,"startTime":1726862671617,"endTime":1726862671618,"millis":1.1812,"status":"passed"},"step":{"line":47,"prefix":"And","index":7,"text":"match responseHeaders['Content-Type'][0] contains 'application\/json'"}}],"line":51,"description":"","durationMillis":729.7264,"failed":false,"executorName":"pool-1-thread-3","name":"Sends a POST request without email","startTime":1726862670622,"refId":"[3.1:51]","endTime":1726862671618,"exampleData":{"email":null,"password":"cityslicka"},"exampleIndex":0},{"sectionIndex":3,"stepResults":[{"result":{"nanos":2609000,"startTime":1726862670882,"endTime":1726862670885,"millis":2.609,"status":"passed"},"step":{"background":true,"line":4,"prefix":"*","index":0,"text":"url urlBase"},"stepLog":"22:04:30.835 karate.env system property was: null \n"},{"result":{"nanos":52663800,"startTime":1726862670888,"endTime":1726862670941,"millis":52.6638,"status":"passed"},"step":{"background":true,"line":5,"prefix":"*","index":1,"text":"def credential = read ('credentials.json')"}},{"result":{"nanos":1950200,"startTime":1726862670942,"endTime":1726862670944,"millis":1.9502,"status":"passed"},"step":{"background":true,"line":6,"prefix":"*","index":2,"text":"def error = read ('errors.json')"}},{"result":{"nanos":9888400,"startTime":1726862670942,"endTime":1726862670952,"millis":9.8884,"status":"passed"},"step":{"line":54,"prefix":"*","index":0,"text":"set credential.email = 'eve.holtreqres.in'"}},{"result":{"nanos":1662500,"startTime":1726862670953,"endTime":1726862670955,"millis":1.6625,"status":"passed"},"step":{"line":55,"prefix":"*","index":1,"text":"set credential.password = 'cityslicka'"}},{"result":{"nanos":496700,"startTime":1726862670953,"endTime":1726862670953,"millis":0.4967,"status":"passed"},"step":{"line":57,"prefix":"Given","index":2,"text":"path 'login'"}},{"result":{"nanos":364200,"startTime":1726862670953,"endTime":1726862670953,"millis":0.3642,"status":"passed"},"step":{"line":58,"prefix":"And","index":3,"text":"request credential"}},{"result":{"nanos":679729800,"startTime":1726862670953,"endTime":1726862671633,"millis":679.7298,"status":"passed"},"step":{"line":59,"prefix":"When","index":4,"text":"method post"},"stepLog":"22:04:31.212 request:\n1 > POST https:\/\/reqres.in\/api\/login\n1 > Content-Type: application\/json; charset=UTF-8\n1 > Content-Length: 53\n1 > Host: reqres.in\n1 > Connection: Keep-Alive\n1 > User-Agent: Apache-HttpClient\/4.5.14 (Java\/21.0.4)\n1 > Accept-Encoding: gzip,deflate\n{\"email\":\"eve.holtreqres.in\",\"password\":\"cityslicka\"}\n\n22:04:31.633 response time in milliseconds: 421\n1 < 400\n1 < Date: Fri, 20 Sep 2024 20:04:31 GMT\n1 < Content-Type: application\/json; charset=utf-8\n1 < Content-Length: 26\n1 < Connection: keep-alive\n1 < Report-To: {\"group\":\"heroku-nel\",\"max_age\":3600,\"endpoints\":[{\"url\":\"https:\/\/nel.heroku.com\/reports?ts=1726862670&sid=c4c9725f-1ab0-44d8-820f-430df2718e11&s=7b6wwrvZL%2BbmR8SIimG%2F3SVqwpb%2BldQ5Rthe04xKXNk%3D\"}]}\n1 < Reporting-Endpoints: heroku-nel=https:\/\/nel.heroku.com\/reports?ts=1726862670&sid=c4c9725f-1ab0-44d8-820f-430df2718e11&s=7b6wwrvZL%2BbmR8SIimG%2F3SVqwpb%2BldQ5Rthe04xKXNk%3D\n1 < Nel: {\"report_to\":\"heroku-nel\",\"max_age\":3600,\"success_fraction\":0.005,\"failure_fraction\":0.05,\"response_headers\":[\"Via\"]}\n1 < X-Powered-By: Express\n1 < Access-Control-Allow-Origin: *\n1 < Etag: W\/\"1a-EGIcyP6BIiCXl5Gb1aph5CGf4VQ\"\n1 < Via: 1.1 vegur\n1 < CF-Cache-Status: DYNAMIC\n1 < Server: cloudflare\n1 < CF-RAY: 8c646cccdaefcc41-MAD\n{\"error\":\"user not found\"}\n\n"},{"result":{"nanos":17500,"startTime":1726862671633,"endTime":1726862671633,"millis":0.0175,"status":"passed"},"step":{"line":60,"prefix":"Then","index":5,"text":"status 400"}},{"result":{"nanos":1233900,"startTime":1726862671633,"endTime":1726862671634,"millis":1.2339,"status":"passed"},"step":{"line":61,"prefix":"And","index":6,"text":"match response.error == error.error03"}},{"result":{"nanos":1143100,"startTime":1726862671633,"endTime":1726862671634,"millis":1.1431,"status":"passed"},"step":{"line":62,"prefix":"And","index":7,"text":"match responseHeaders['Content-Type'][0] contains 'application\/json'"}}],"line":66,"description":"","durationMillis":751.7591,"failed":false,"executorName":"pool-1-thread-4","name":"Sends a POST request with invalid email","startTime":1726862670622,"refId":"[4.1:66]","endTime":1726862671633,"exampleData":{"email":"eve.holtreqres.in","password":"cityslicka"},"exampleIndex":0},{"sectionIndex":4,"stepResults":[{"result":{"nanos":2397000,"startTime":1726862670882,"endTime":1726862670884,"millis":2.397,"status":"passed"},"step":{"background":true,"line":4,"prefix":"*","index":0,"text":"url urlBase"},"stepLog":"22:04:30.835 karate.env system property was: null \n"},{"result":{"nanos":52658600,"startTime":1726862670888,"endTime":1726862670941,"millis":52.6586,"status":"passed"},"step":{"background":true,"line":5,"prefix":"*","index":1,"text":"def credential = read ('credentials.json')"}},{"result":{"nanos":1992100,"startTime":1726862670942,"endTime":1726862670944,"millis":1.9921,"status":"passed"},"step":{"background":true,"line":6,"prefix":"*","index":2,"text":"def error = read ('errors.json')"}},{"result":{"nanos":813800,"startTime":1726862670942,"endTime":1726862670943,"millis":0.8138,"status":"passed"},"step":{"line":69,"prefix":"Given","index":0,"text":"path 'login'"}},{"result":{"nanos":6527700,"startTime":1726862670942,"endTime":1726862670949,"millis":6.5277,"status":"passed"},"step":{"line":70,"prefix":"And","index":1,"text":"request credential"}},{"result":{"nanos":675562000,"startTime":1726862670952,"endTime":1726862671628,"millis":675.562,"status":"passed"},"step":{"line":71,"prefix":"When","index":2,"text":"method post"},"stepLog":"22:04:31.212 request:\n1 > POST https:\/\/reqres.in\/api\/login\n1 > Content-Type: application\/json; charset=UTF-8\n1 > Content-Length: 54\n1 > Host: reqres.in\n1 > Connection: Keep-Alive\n1 > User-Agent: Apache-HttpClient\/4.5.14 (Java\/21.0.4)\n1 > Accept-Encoding: gzip,deflate\n{\"email\":\"eve.holt@reqres.in\",\"password\":\"cityslicka\"}\n\n22:04:31.618 response time in milliseconds: 406\n1 < 200\n1 < Date: Fri, 20 Sep 2024 20:04:31 GMT\n1 < Content-Type: application\/json; charset=utf-8\n1 < Content-Length: 29\n1 < Connection: keep-alive\n1 < Report-To: {\"group\":\"heroku-nel\",\"max_age\":3600,\"endpoints\":[{\"url\":\"https:\/\/nel.heroku.com\/reports?ts=1726862670&sid=c4c9725f-1ab0-44d8-820f-430df2718e11&s=7b6wwrvZL%2BbmR8SIimG%2F3SVqwpb%2BldQ5Rthe04xKXNk%3D\"}]}\n1 < Reporting-Endpoints: heroku-nel=https:\/\/nel.heroku.com\/reports?ts=1726862670&sid=c4c9725f-1ab0-44d8-820f-430df2718e11&s=7b6wwrvZL%2BbmR8SIimG%2F3SVqwpb%2BldQ5Rthe04xKXNk%3D\n1 < Nel: {\"report_to\":\"heroku-nel\",\"max_age\":3600,\"success_fraction\":0.005,\"failure_fraction\":0.05,\"response_headers\":[\"Via\"]}\n1 < X-Powered-By: Express\n1 < Access-Control-Allow-Origin: *\n1 < Etag: W\/\"1d-lGCrvD6B7Qzk11+2C98+nGhhuec\"\n1 < Via: 1.1 vegur\n1 < CF-Cache-Status: DYNAMIC\n1 < Server: cloudflare\n1 < CF-RAY: 8c646cccdcbc667d-MAD\n{\"token\":\"QpwL5tke4Pnpja7X4\"}\n\n"},{"result":{"nanos":19100,"startTime":1726862671618,"endTime":1726862671618,"millis":0.0191,"status":"passed"},"step":{"line":72,"prefix":"Then","index":3,"text":"status 200"}},{"result":{"nanos":23113200,"startTime":1726862671618,"endTime":1726862671641,"millis":23.1132,"status":"passed"},"step":{"line":73,"prefix":"And","index":4,"text":"assert responseTime < 1000"}}],"executorName":"pool-1-thread-5","line":68,"name":"Send a POST request with valid credentials and validate response time","description":"","durationMillis":763.0835,"startTime":1726862670622,"failed":false,"refId":"[5:68]","endTime":1726862671649,"exampleIndex":-1},{"sectionIndex":5,"stepResults":[{"result":{"nanos":186900,"startTime":1726862671596,"endTime":1726862671596,"millis":0.1869,"status":"passed"},"step":{"background":true,"line":4,"prefix":"*","index":0,"text":"url urlBase"},"stepLog":"22:04:31.596 karate.env system property was: null \n"},{"result":{"nanos":979900,"startTime":1726862671596,"endTime":1726862671597,"millis":0.9799,"status":"passed"},"step":{"background":true,"line":5,"prefix":"*","index":1,"text":"def credential = read ('credentials.json')"}},{"result":{"nanos":834500,"startTime":1726862671596,"endTime":1726862671597,"millis":0.8345,"status":"passed"},"step":{"background":true,"line":6,"prefix":"*","index":2,"text":"def error = read ('errors.json')"}},{"result":{"nanos":165600,"startTime":1726862671596,"endTime":1726862671596,"millis":0.1656,"status":"passed"},"step":{"line":76,"prefix":"Given","index":0,"text":"path 'login'"}},{"result":{"nanos":185000,"startTime":1726862671596,"endTime":1726862671596,"millis":0.185,"status":"passed"},"step":{"line":77,"prefix":"And","index":1,"text":"request credential"}},{"result":{"nanos":178616200,"startTime":1726862671596,"endTime":1726862671775,"millis":178.6162,"status":"passed"},"step":{"line":78,"prefix":"When","index":2,"text":"method get"},"stepLog":"22:04:31.596 request:\n1 > GET https:\/\/reqres.in\/api\/login\n1 > Content-Type: application\/json; charset=UTF-8\n1 > Content-Length: 54\n1 > Host: reqres.in\n1 > Connection: Keep-Alive\n1 > User-Agent: Apache-HttpClient\/4.5.14 (Java\/21.0.4)\n1 > Accept-Encoding: gzip,deflate\n{\"email\":\"eve.holt@reqres.in\",\"password\":\"cityslicka\"}\n\n22:04:31.776 response time in milliseconds: 180\n1 < 200\n1 < Date: Fri, 20 Sep 2024 20:04:31 GMT\n1 < Content-Type: application\/json; charset=utf-8\n1 < Transfer-Encoding: chunked\n1 < Connection: keep-alive\n1 < Report-To: {\"group\":\"heroku-nel\",\"max_age\":3600,\"endpoints\":[{\"url\":\"https:\/\/nel.heroku.com\/reports?ts=1726441396&sid=c4c9725f-1ab0-44d8-820f-430df2718e11&s=9npWHgqN1ctQzQO14gy20qZfpdHhNWpXf0WUwm80P2c%3D\"}]}\n1 < Reporting-Endpoints: heroku-nel=https:\/\/nel.heroku.com\/reports?ts=1726441396&sid=c4c9725f-1ab0-44d8-820f-430df2718e11&s=9npWHgqN1ctQzQO14gy20qZfpdHhNWpXf0WUwm80P2c%3D\n1 < Nel: {\"report_to\":\"heroku-nel\",\"max_age\":3600,\"success_fraction\":0.005,\"failure_fraction\":0.05,\"response_headers\":[\"Via\"]}\n1 < X-Powered-By: Express\n1 < Access-Control-Allow-Origin: *\n1 < Etag: W\/\"2c1-N6Rqerxquq2kgQhL51EiSg4x0R8\"\n1 < Via: 1.1 vegur\n1 < Cache-Control: max-age=14400\n1 < CF-Cache-Status: REVALIDATED\n1 < Vary: Accept-Encoding\n1 < Server: cloudflare\n1 < CF-RAY: 8c646ccdda82041e-MAD\n{\"page\":1,\"per_page\":6,\"total\":12,\"total_pages\":2,\"data\":[{\"id\":1,\"name\":\"cerulean\",\"year\":2000,\"color\":\"#98B2D1\",\"pantone_value\":\"15-4020\"},{\"id\":2,\"name\":\"fuchsia rose\",\"year\":2001,\"color\":\"#C74375\",\"pantone_value\":\"17-2031\"},{\"id\":3,\"name\":\"true red\",\"year\":2002,\"color\":\"#BF1932\",\"pantone_value\":\"19-1664\"},{\"id\":4,\"name\":\"aqua sky\",\"year\":2003,\"color\":\"#7BC4C4\",\"pantone_value\":\"14-4811\"},{\"id\":5,\"name\":\"tigerlily\",\"year\":2004,\"color\":\"#E2583E\",\"pantone_value\":\"17-1456\"},{\"id\":6,\"name\":\"blue turquoise\",\"year\":2005,\"color\":\"#53B0AE\",\"pantone_value\":\"15-5217\"}],\"support\":{\"url\":\"https:\/\/reqres.in\/#support-heading\",\"text\":\"To keep ReqRes free, contributions towards server costs are appreciated!\"}}\n\n"},{"result":{"nanos":70700,"errorMessage":"status code was: 200, expected: 404, response time in milliseconds: 180, url: https:\/\/reqres.in\/api\/login, response: \n{\"page\":1,\"per_page\":6,\"total\":12,\"total_pages\":2,\"data\":[{\"id\":1,\"name\":\"cerulean\",\"year\":2000,\"color\":\"#98B2D1\",\"pantone_value\":\"15-4020\"},{\"id\":2,\"name\":\"fuchsia rose\",\"year\":2001,\"color\":\"#C74375\",\"pantone_value\":\"17-2031\"},{\"id\":3,\"name\":\"true red\",\"year\":2002,\"color\":\"#BF1932\",\"pantone_value\":\"19-1664\"},{\"id\":4,\"name\":\"aqua sky\",\"year\":2003,\"color\":\"#7BC4C4\",\"pantone_value\":\"14-4811\"},{\"id\":5,\"name\":\"tigerlily\",\"year\":2004,\"color\":\"#E2583E\",\"pantone_value\":\"17-1456\"},{\"id\":6,\"name\":\"blue turquoise\",\"year\":2005,\"color\":\"#53B0AE\",\"pantone_value\":\"15-5217\"}],\"support\":{\"url\":\"https:\/\/reqres.in\/#support-heading\",\"text\":\"To keep ReqRes free, contributions towards server costs are appreciated!\"}}\nclasspath:tests\/scenario1\/scenario1.feature:79","startTime":1726862671776,"endTime":1726862671776,"millis":0.0707,"status":"failed"},"step":{"line":79,"prefix":"Then","index":3,"text":"status 404"},"stepLog":"22:04:31.776 classpath:tests\/scenario1\/scenario1.feature:79\nThen status 404\nstatus code was: 200, expected: 404, response time in milliseconds: 180, url: https:\/\/reqres.in\/api\/login, response: \n{\"page\":1,\"per_page\":6,\"total\":12,\"total_pages\":2,\"data\":[{\"id\":1,\"name\":\"cerulean\",\"year\":2000,\"color\":\"#98B2D1\",\"pantone_value\":\"15-4020\"},{\"id\":2,\"name\":\"fuchsia rose\",\"year\":2001,\"color\":\"#C74375\",\"pantone_value\":\"17-2031\"},{\"id\":3,\"name\":\"true red\",\"year\":2002,\"color\":\"#BF1932\",\"pantone_value\":\"19-1664\"},{\"id\":4,\"name\":\"aqua sky\",\"year\":2003,\"color\":\"#7BC4C4\",\"pantone_value\":\"14-4811\"},{\"id\":5,\"name\":\"tigerlily\",\"year\":2004,\"color\":\"#E2583E\",\"pantone_value\":\"17-1456\"},{\"id\":6,\"name\":\"blue turquoise\",\"year\":2005,\"color\":\"#53B0AE\",\"pantone_value\":\"15-5217\"}],\"support\":{\"url\":\"https:\/\/reqres.in\/#support-heading\",\"text\":\"To keep ReqRes free, contributions towards server costs are appreciated!\"}}\nclasspath:tests\/scenario1\/scenario1.feature:79\n"}],"line":75,"description":"","durationMillis":181.0388,"failed":true,"error":"status code was: 200, expected: 404, response time in milliseconds: 180, url: https:\/\/reqres.in\/api\/login, response: \n{\"page\":1,\"per_page\":6,\"total\":12,\"total_pages\":2,\"data\":[{\"id\":1,\"name\":\"cerulean\",\"year\":2000,\"color\":\"#98B2D1\",\"pantone_value\":\"15-4020\"},{\"id\":2,\"name\":\"fuchsia rose\",\"year\":2001,\"color\":\"#C74375\",\"pantone_value\":\"17-2031\"},{\"id\":3,\"name\":\"true red\",\"year\":2002,\"color\":\"#BF1932\",\"pantone_value\":\"19-1664\"},{\"id\":4,\"name\":\"aqua sky\",\"year\":2003,\"color\":\"#7BC4C4\",\"pantone_value\":\"14-4811\"},{\"id\":5,\"name\":\"tigerlily\",\"year\":2004,\"color\":\"#E2583E\",\"pantone_value\":\"17-1456\"},{\"id\":6,\"name\":\"blue turquoise\",\"year\":2005,\"color\":\"#53B0AE\",\"pantone_value\":\"15-5217\"}],\"support\":{\"url\":\"https:\/\/reqres.in\/#support-heading\",\"text\":\"To keep ReqRes free, contributions towards server costs are appreciated!\"}}\nclasspath:tests\/scenario1\/scenario1.feature:79","executorName":"pool-1-thread-1","name":"Send a GET (invalid method) request with valid credentials","startTime":1726862671596,"refId":"[6:75]","endTime":1726862671776,"exampleIndex":-1}],"callDepth":0,"name":"Test both successful and failed login attempts and ensure the API handles missing fields appropriately.","description":"","resultDate":"2024-09-20 10:04:31 p. m.","durationMillis":3838.9992,"passedCount":5}