{"failedCount":0,"prefixedPath":"classpath:tests\/scenario4\/scenario4.feature","packageQualifiedName":"tests.scenario4.scenario4","loopIndex":-1,"relativePath":"tests\/scenario4\/scenario4.feature","scenarioResults":[{"sectionIndex":0,"stepResults":[{"result":{"nanos":153200,"startTime":1726862671823,"endTime":1726862671823,"millis":0.1532,"status":"passed"},"step":{"background":true,"line":4,"prefix":"*","index":0,"text":"url urlBase"},"stepLog":"22:04:31.823 karate.env system property was: null \n"},{"result":{"nanos":1350900,"startTime":1726862671823,"endTime":1726862671824,"millis":1.3509,"status":"passed"},"step":{"background":true,"line":5,"prefix":"*","index":1,"text":"def expectedResponse = read ('expectedResponse.json')"}},{"result":{"nanos":272800,"startTime":1726862671823,"endTime":1726862671823,"millis":0.2728,"status":"passed"},"step":{"line":8,"prefix":"Given","index":0,"text":"path 'users'"}},{"result":{"nanos":10004000,"startTime":1726862671823,"endTime":1726862671833,"millis":10.004,"status":"passed"},"step":{"line":9,"prefix":"And","index":1,"text":"param page = 2"}},{"result":{"nanos":45977700,"startTime":1726862671823,"endTime":1726862671869,"millis":45.9777,"status":"passed"},"step":{"line":10,"prefix":"When","index":2,"text":"method get"},"stepLog":"22:04:31.839 request:\n1 > GET https:\/\/reqres.in\/api\/users?page=2\n1 > Host: reqres.in\n1 > Connection: Keep-Alive\n1 > User-Agent: Apache-HttpClient\/4.5.14 (Java\/21.0.4)\n1 > Accept-Encoding: gzip,deflate\n\n\n22:04:31.870 response time in milliseconds: 31\n1 < 200\n1 < Date: Fri, 20 Sep 2024 20:04:31 GMT\n1 < Content-Type: application\/json; charset=utf-8\n1 < Transfer-Encoding: chunked\n1 < Connection: keep-alive\n1 < Report-To: {\"group\":\"heroku-nel\",\"max_age\":3600,\"endpoints\":[{\"url\":\"https:\/\/nel.heroku.com\/reports?ts=1726827785&sid=c4c9725f-1ab0-44d8-820f-430df2718e11&s=my6oP3OnXUdhNzJ1XXT3ym%2F65CPiN85YaPiwN2Le1%2Bc%3D\"}]}\n1 < Reporting-Endpoints: heroku-nel=https:\/\/nel.heroku.com\/reports?ts=1726827785&sid=c4c9725f-1ab0-44d8-820f-430df2718e11&s=my6oP3OnXUdhNzJ1XXT3ym%2F65CPiN85YaPiwN2Le1%2Bc%3D\n1 < Nel: {\"report_to\":\"heroku-nel\",\"max_age\":3600,\"success_fraction\":0.005,\"failure_fraction\":0.05,\"response_headers\":[\"Via\"]}\n1 < X-Powered-By: Express\n1 < Access-Control-Allow-Origin: *\n1 < Etag: W\/\"406-ut0vzoCuidvyMf8arZpMpJ6ZRDw\"\n1 < Via: 1.1 vegur\n1 < Cache-Control: max-age=14400\n1 < CF-Cache-Status: HIT\n1 < Age: 1727\n1 < Vary: Accept-Encoding\n1 < Server: cloudflare\n1 < CF-RAY: 8c646ccf3fe5cfd7-MAD\n{\"page\":2,\"per_page\":6,\"total\":12,\"total_pages\":2,\"data\":[{\"id\":7,\"email\":\"michael.lawson@reqres.in\",\"first_name\":\"Michael\",\"last_name\":\"Lawson\",\"avatar\":\"https:\/\/reqres.in\/img\/faces\/7-image.jpg\"},{\"id\":8,\"email\":\"lindsay.ferguson@reqres.in\",\"first_name\":\"Lindsay\",\"last_name\":\"Ferguson\",\"avatar\":\"https:\/\/reqres.in\/img\/faces\/8-image.jpg\"},{\"id\":9,\"email\":\"tobias.funke@reqres.in\",\"first_name\":\"Tobias\",\"last_name\":\"Funke\",\"avatar\":\"https:\/\/reqres.in\/img\/faces\/9-image.jpg\"},{\"id\":10,\"email\":\"byron.fields@reqres.in\",\"first_name\":\"Byron\",\"last_name\":\"Fields\",\"avatar\":\"https:\/\/reqres.in\/img\/faces\/10-image.jpg\"},{\"id\":11,\"email\":\"george.edwards@reqres.in\",\"first_name\":\"George\",\"last_name\":\"Edwards\",\"avatar\":\"https:\/\/reqres.in\/img\/faces\/11-image.jpg\"},{\"id\":12,\"email\":\"rachel.howell@reqres.in\",\"first_name\":\"Rachel\",\"last_name\":\"Howell\",\"avatar\":\"https:\/\/reqres.in\/img\/faces\/12-image.jpg\"}],\"support\":{\"url\":\"https:\/\/reqres.in\/#support-heading\",\"text\":\"To keep ReqRes free, contributions towards server costs are appreciated!\"}}\n\n"},{"result":{"nanos":22700,"startTime":1726862671870,"endTime":1726862671870,"millis":0.0227,"status":"passed"},"step":{"line":11,"prefix":"Then","index":3,"text":"status 200"}},{"result":{"nanos":1494800,"startTime":1726862671870,"endTime":1726862671871,"millis":1.4948,"status":"passed"},"step":{"line":12,"prefix":"And","index":4,"text":"match response.per_page == 6"}},{"result":{"nanos":8360500,"startTime":1726862671870,"endTime":1726862671878,"millis":8.3605,"status":"passed"},"step":{"line":13,"prefix":"And","index":5,"text":"match response.data == '#[6]'"}},{"result":{"nanos":1434000,"startTime":1726862671890,"endTime":1726862671891,"millis":1.434,"status":"passed"},"step":{"line":14,"prefix":"And","index":6,"text":"match response.page == expectedResponse.page"}},{"result":{"nanos":1326800,"startTime":1726862671890,"endTime":1726862671891,"millis":1.3268,"status":"passed"},"step":{"line":15,"prefix":"And","index":7,"text":"match response.per_page == expectedResponse.per_page"}},{"result":{"nanos":1080000,"startTime":1726862671890,"endTime":1726862671891,"millis":1.08,"status":"passed"},"step":{"line":16,"prefix":"And","index":8,"text":"match response.total == expectedResponse.total"}},{"result":{"nanos":1367600,"startTime":1726862671890,"endTime":1726862671891,"millis":1.3676,"status":"passed"},"step":{"line":17,"prefix":"And","index":9,"text":"match response.total_pages == expectedResponse.total_pages"}},{"result":{"nanos":561100,"startTime":1726862671890,"endTime":1726862671891,"millis":0.5611,"status":"passed"},"step":{"line":18,"prefix":"And","index":10,"text":"match responseHeaders['Content-Type'][0] contains 'application\/json'"}}],"executorName":"pool-1-thread-2","line":7,"name":"Sends a GET request to \/api\/users?page=2 and verifies the correct number of users is returned","description":"","durationMillis":73.4061,"startTime":1726862671807,"failed":false,"refId":"[1:7]","endTime":1726862671890,"exampleIndex":-1},{"sectionIndex":1,"stepResults":[{"result":{"nanos":125300,"startTime":1726862671839,"endTime":1726862671839,"millis":0.1253,"status":"passed"},"step":{"background":true,"line":4,"prefix":"*","index":0,"text":"url urlBase"},"stepLog":"22:04:31.839 karate.env system property was: null \n"},{"result":{"nanos":971500,"startTime":1726862671839,"endTime":1726862671840,"millis":0.9715,"status":"passed"},"step":{"background":true,"line":5,"prefix":"*","index":1,"text":"def expectedResponse = read ('expectedResponse.json')"}},{"result":{"nanos":237900,"startTime":1726862671839,"endTime":1726862671839,"millis":0.2379,"status":"passed"},"step":{"line":21,"prefix":"Given","index":0,"text":"path 'users'"}},{"result":{"nanos":721000,"startTime":1726862671839,"endTime":1726862671840,"millis":0.721,"status":"passed"},"step":{"line":22,"prefix":"And","index":1,"text":"param page = 1"}},{"result":{"nanos":114661200,"startTime":1726862671839,"endTime":1726862671954,"millis":114.6612,"status":"passed"},"step":{"line":23,"prefix":"When","index":2,"text":"method get"},"stepLog":"22:04:31.854 request:\n1 > GET https:\/\/reqres.in\/api\/users?page=1\n1 > Host: reqres.in\n1 > Connection: Keep-Alive\n1 > User-Agent: Apache-HttpClient\/4.5.14 (Java\/21.0.4)\n1 > Accept-Encoding: gzip,deflate\n\n\n22:04:31.964 response time in milliseconds: 110\n1 < 200\n1 < Date: Fri, 20 Sep 2024 20:04:31 GMT\n1 < Content-Type: application\/json; charset=utf-8\n1 < Transfer-Encoding: chunked\n1 < Connection: keep-alive\n1 < Report-To: {\"group\":\"heroku-nel\",\"max_age\":3600,\"endpoints\":[{\"url\":\"https:\/\/nel.heroku.com\/reports?ts=1726818001&sid=c4c9725f-1ab0-44d8-820f-430df2718e11&s=JT4Qfkj0i7l3Tv43cNzn6a4uiuXDC9LlRW71oHy8wk0%3D\"}]}\n1 < Reporting-Endpoints: heroku-nel=https:\/\/nel.heroku.com\/reports?ts=1726818001&sid=c4c9725f-1ab0-44d8-820f-430df2718e11&s=JT4Qfkj0i7l3Tv43cNzn6a4uiuXDC9LlRW71oHy8wk0%3D\n1 < Nel: {\"report_to\":\"heroku-nel\",\"max_age\":3600,\"success_fraction\":0.005,\"failure_fraction\":0.05,\"response_headers\":[\"Via\"]}\n1 < X-Powered-By: Express\n1 < Access-Control-Allow-Origin: *\n1 < Etag: W\/\"3e4-2RLXvr5wTg9YQ6aH95CkYoFNuO8\"\n1 < Via: 1.1 vegur\n1 < Cache-Control: max-age=14400\n1 < CF-Cache-Status: REVALIDATED\n1 < Vary: Accept-Encoding\n1 < Server: cloudflare\n1 < CF-RAY: 8c646ccf5fea8680-MAD\n{\"page\":1,\"per_page\":6,\"total\":12,\"total_pages\":2,\"data\":[{\"id\":1,\"email\":\"george.bluth@reqres.in\",\"first_name\":\"George\",\"last_name\":\"Bluth\",\"avatar\":\"https:\/\/reqres.in\/img\/faces\/1-image.jpg\"},{\"id\":2,\"email\":\"janet.weaver@reqres.in\",\"first_name\":\"Janet\",\"last_name\":\"Weaver\",\"avatar\":\"https:\/\/reqres.in\/img\/faces\/2-image.jpg\"},{\"id\":3,\"email\":\"emma.wong@reqres.in\",\"first_name\":\"Emma\",\"last_name\":\"Wong\",\"avatar\":\"https:\/\/reqres.in\/img\/faces\/3-image.jpg\"},{\"id\":4,\"email\":\"eve.holt@reqres.in\",\"first_name\":\"Eve\",\"last_name\":\"Holt\",\"avatar\":\"https:\/\/reqres.in\/img\/faces\/4-image.jpg\"},{\"id\":5,\"email\":\"charles.morris@reqres.in\",\"first_name\":\"Charles\",\"last_name\":\"Morris\",\"avatar\":\"https:\/\/reqres.in\/img\/faces\/5-image.jpg\"},{\"id\":6,\"email\":\"tracey.ramos@reqres.in\",\"first_name\":\"Tracey\",\"last_name\":\"Ramos\",\"avatar\":\"https:\/\/reqres.in\/img\/faces\/6-image.jpg\"}],\"support\":{\"url\":\"https:\/\/reqres.in\/#support-heading\",\"text\":\"To keep ReqRes free, contributions towards server costs are appreciated!\"}}\n\n"},{"result":{"nanos":18000,"startTime":1726862671964,"endTime":1726862671964,"millis":0.018,"status":"passed"},"step":{"line":24,"prefix":"Then","index":3,"text":"status 200"}},{"result":{"nanos":908500,"startTime":1726862671964,"endTime":1726862671965,"millis":0.9085,"status":"passed"},"step":{"line":25,"prefix":"And","index":4,"text":"def usersPage1 = response.data"}},{"result":{"nanos":180400,"startTime":1726862671964,"endTime":1726862671964,"millis":0.1804,"status":"passed"},"step":{"line":27,"prefix":"Given","index":5,"text":"path 'users'"}},{"result":{"nanos":555300,"startTime":1726862671964,"endTime":1726862671965,"millis":0.5553,"status":"passed"},"step":{"line":28,"prefix":"And","index":6,"text":"param page = 2"}},{"result":{"nanos":41411900,"startTime":1726862671964,"endTime":1726862672005,"millis":41.4119,"status":"passed"},"step":{"line":29,"prefix":"When","index":7,"text":"method get"},"stepLog":"22:04:31.964 request:\n2 > GET https:\/\/reqres.in\/api\/users?page=2\n2 > Host: reqres.in\n2 > Connection: Keep-Alive\n2 > User-Agent: Apache-HttpClient\/4.5.14 (Java\/21.0.4)\n2 > Accept-Encoding: gzip,deflate\n\n\n22:04:31.996 response time in milliseconds: 32\n2 < 200\n2 < Date: Fri, 20 Sep 2024 20:04:31 GMT\n2 < Content-Type: application\/json; charset=utf-8\n2 < Transfer-Encoding: chunked\n2 < Connection: keep-alive\n2 < Report-To: {\"group\":\"heroku-nel\",\"max_age\":3600,\"endpoints\":[{\"url\":\"https:\/\/nel.heroku.com\/reports?ts=1726827785&sid=c4c9725f-1ab0-44d8-820f-430df2718e11&s=my6oP3OnXUdhNzJ1XXT3ym%2F65CPiN85YaPiwN2Le1%2Bc%3D\"}]}\n2 < Reporting-Endpoints: heroku-nel=https:\/\/nel.heroku.com\/reports?ts=1726827785&sid=c4c9725f-1ab0-44d8-820f-430df2718e11&s=my6oP3OnXUdhNzJ1XXT3ym%2F65CPiN85YaPiwN2Le1%2Bc%3D\n2 < Nel: {\"report_to\":\"heroku-nel\",\"max_age\":3600,\"success_fraction\":0.005,\"failure_fraction\":0.05,\"response_headers\":[\"Via\"]}\n2 < X-Powered-By: Express\n2 < Access-Control-Allow-Origin: *\n2 < Etag: W\/\"406-ut0vzoCuidvyMf8arZpMpJ6ZRDw\"\n2 < Via: 1.1 vegur\n2 < Cache-Control: max-age=14400\n2 < CF-Cache-Status: HIT\n2 < Age: 1727\n2 < Vary: Accept-Encoding\n2 < Server: cloudflare\n2 < CF-RAY: 8c646cd01af92162-MAD\n{\"page\":2,\"per_page\":6,\"total\":12,\"total_pages\":2,\"data\":[{\"id\":7,\"email\":\"michael.lawson@reqres.in\",\"first_name\":\"Michael\",\"last_name\":\"Lawson\",\"avatar\":\"https:\/\/reqres.in\/img\/faces\/7-image.jpg\"},{\"id\":8,\"email\":\"lindsay.ferguson@reqres.in\",\"first_name\":\"Lindsay\",\"last_name\":\"Ferguson\",\"avatar\":\"https:\/\/reqres.in\/img\/faces\/8-image.jpg\"},{\"id\":9,\"email\":\"tobias.funke@reqres.in\",\"first_name\":\"Tobias\",\"last_name\":\"Funke\",\"avatar\":\"https:\/\/reqres.in\/img\/faces\/9-image.jpg\"},{\"id\":10,\"email\":\"byron.fields@reqres.in\",\"first_name\":\"Byron\",\"last_name\":\"Fields\",\"avatar\":\"https:\/\/reqres.in\/img\/faces\/10-image.jpg\"},{\"id\":11,\"email\":\"george.edwards@reqres.in\",\"first_name\":\"George\",\"last_name\":\"Edwards\",\"avatar\":\"https:\/\/reqres.in\/img\/faces\/11-image.jpg\"},{\"id\":12,\"email\":\"rachel.howell@reqres.in\",\"first_name\":\"Rachel\",\"last_name\":\"Howell\",\"avatar\":\"https:\/\/reqres.in\/img\/faces\/12-image.jpg\"}],\"support\":{\"url\":\"https:\/\/reqres.in\/#support-heading\",\"text\":\"To keep ReqRes free, contributions towards server costs are appreciated!\"}}\n\n"},{"result":{"nanos":15400,"startTime":1726862671996,"endTime":1726862671996,"millis":0.0154,"status":"passed"},"step":{"line":30,"prefix":"Then","index":8,"text":"status 200"}},{"result":{"nanos":1552300,"startTime":1726862671996,"endTime":1726862671998,"millis":1.5523,"status":"passed"},"step":{"line":31,"prefix":"And","index":9,"text":"def usersPage2 = response.data"}},{"result":{"nanos":8005500,"startTime":1726862672011,"endTime":1726862672019,"millis":8.0055,"status":"passed"},"step":{"line":33,"prefix":"*","index":10,"text":"def userIdsPage1 = karate.map(usersPage1, function(x){ return x.id })"}},{"result":{"nanos":2251900,"startTime":1726862672011,"endTime":1726862672013,"millis":2.2519,"status":"passed"},"step":{"line":34,"prefix":"*","index":11,"text":"def userIdsPage2 = karate.map(usersPage2, function(x){ return x.id })"}},{"result":{"nanos":683500,"startTime":1726862672011,"endTime":1726862672012,"millis":0.6835,"status":"passed"},"step":{"line":35,"prefix":"*","index":12,"text":"match userIdsPage1 != userIdsPage2"}}],"executorName":"pool-1-thread-3","line":20,"name":"Sends a GET request and validate users on page 1 and page 2 are unique","description":"","durationMillis":172.2996,"startTime":1726862671839,"failed":false,"refId":"[2:20]","endTime":1726862672011,"exampleIndex":-1},{"sectionIndex":2,"stepResults":[{"result":{"nanos":74700,"startTime":1726862671901,"endTime":1726862671901,"millis":0.0747,"status":"passed"},"step":{"background":true,"line":4,"prefix":"*","index":0,"text":"url urlBase"},"stepLog":"22:04:31.901 karate.env system property was: null \n"},{"result":{"nanos":935100,"startTime":1726862671901,"endTime":1726862671902,"millis":0.9351,"status":"passed"},"step":{"background":true,"line":5,"prefix":"*","index":1,"text":"def expectedResponse = read ('expectedResponse.json')"}},{"result":{"nanos":167500,"startTime":1726862671901,"endTime":1726862671901,"millis":0.1675,"status":"passed"},"step":{"line":38,"prefix":"Given","index":0,"text":"path 'users'"}},{"result":{"nanos":587000,"startTime":1726862671901,"endTime":1726862671902,"millis":0.587,"status":"passed"},"step":{"line":39,"prefix":"And","index":1,"text":"param page = 999"}},{"result":{"nanos":113318900,"startTime":1726862671901,"endTime":1726862672014,"millis":113.3189,"status":"passed"},"step":{"line":40,"prefix":"When","index":2,"text":"method get"},"stepLog":"22:04:31.901 request:\n1 > GET https:\/\/reqres.in\/api\/users?page=999\n1 > Host: reqres.in\n1 > Connection: Keep-Alive\n1 > User-Agent: Apache-HttpClient\/4.5.14 (Java\/21.0.4)\n1 > Accept-Encoding: gzip,deflate\n\n\n22:04:32.011 response time in milliseconds: 110\n1 < 200\n1 < Date: Fri, 20 Sep 2024 20:04:31 GMT\n1 < Content-Type: application\/json; charset=utf-8\n1 < Transfer-Encoding: chunked\n1 < Connection: keep-alive\n1 < Report-To: {\"group\":\"heroku-nel\",\"max_age\":3600,\"endpoints\":[{\"url\":\"https:\/\/nel.heroku.com\/reports?ts=1726782065&sid=c4c9725f-1ab0-44d8-820f-430df2718e11&s=zCOZP%2BCao1jNEu8tNizgoJ%2FzXCRInm85ox0Ikq8EYYA%3D\"}]}\n1 < Reporting-Endpoints: heroku-nel=https:\/\/nel.heroku.com\/reports?ts=1726782065&sid=c4c9725f-1ab0-44d8-820f-430df2718e11&s=zCOZP%2BCao1jNEu8tNizgoJ%2FzXCRInm85ox0Ikq8EYYA%3D\n1 < Nel: {\"report_to\":\"heroku-nel\",\"max_age\":3600,\"success_fraction\":0.005,\"failure_fraction\":0.05,\"response_headers\":[\"Via\"]}\n1 < X-Powered-By: Express\n1 < Access-Control-Allow-Origin: *\n1 < Etag: W\/\"c7-cga74Ts\/eAcgbsa9NcrUEFyzPc0\"\n1 < Via: 1.1 vegur\n1 < Cache-Control: max-age=14400\n1 < CF-Cache-Status: REVALIDATED\n1 < Vary: Accept-Encoding\n1 < Server: cloudflare\n1 < CF-RAY: 8c646ccfacff041e-MAD\n{\"page\":999,\"per_page\":6,\"total\":12,\"total_pages\":2,\"data\":[],\"support\":{\"url\":\"https:\/\/reqres.in\/#support-heading\",\"text\":\"To keep ReqRes free, contributions towards server costs are appreciated!\"}}\n\n"},{"result":{"nanos":17500,"startTime":1726862672011,"endTime":1726862672011,"millis":0.0175,"status":"passed"},"step":{"line":41,"prefix":"Then","index":3,"text":"status 200"}},{"result":{"nanos":737100,"startTime":1726862672011,"endTime":1726862672012,"millis":0.7371,"status":"passed"},"step":{"line":42,"prefix":"And","index":4,"text":"match response.page == 999"}},{"result":{"nanos":579600,"startTime":1726862672011,"endTime":1726862672012,"millis":0.5796,"status":"passed"},"step":{"line":43,"prefix":"And","index":5,"text":"match response.data == []"}},{"result":{"nanos":696800,"startTime":1726862672011,"endTime":1726862672012,"millis":0.6968,"status":"passed"},"step":{"line":44,"prefix":"And","index":6,"text":"match responseHeaders['Content-Type'][0] contains 'application\/json'"}}],"executorName":"pool-1-thread-2","line":37,"name":"Sends a GET request with non-existent page and verify response","description":"","durationMillis":117.1142,"startTime":1726862671901,"failed":false,"refId":"[3:37]","endTime":1726862672011,"exampleIndex":-1}],"callDepth":0,"name":"The \/api\/users endpoint returns paginated data, allowing clients to request different pages of users.","description":"","resultDate":"2024-09-20 10:04:33 p. m.","durationMillis":362.8199,"passedCount":3}